xof 0302txt 0064
template Header {
 <3D82AB43-62DA-11cf-AB39-0020AF71E433>
 WORD major;
 WORD minor;
 DWORD flags;
}

template Vector {
 <3D82AB5E-62DA-11cf-AB39-0020AF71E433>
 FLOAT x;
 FLOAT y;
 FLOAT z;
}

template Coords2d {
 <F6F23F44-7686-11cf-8F52-0040333594A3>
 FLOAT u;
 FLOAT v;
}

template Matrix4x4 {
 <F6F23F45-7686-11cf-8F52-0040333594A3>
 array FLOAT matrix[16];
}

template ColorRGBA {
 <35FF44E0-6C7C-11cf-8F52-0040333594A3>
 FLOAT red;
 FLOAT green;
 FLOAT blue;
 FLOAT alpha;
}

template ColorRGB {
 <D3E16E81-7835-11cf-8F52-0040333594A3>
 FLOAT red;
 FLOAT green;
 FLOAT blue;
}

template IndexedColor {
 <1630B820-7842-11cf-8F52-0040333594A3>
 DWORD index;
 ColorRGBA indexColor;
}

template Boolean {
 <4885AE61-78E8-11cf-8F52-0040333594A3>
 WORD truefalse;
}

template Boolean2d {
 <4885AE63-78E8-11cf-8F52-0040333594A3>
 Boolean u;
 Boolean v;
}

template MaterialWrap {
 <4885AE60-78E8-11cf-8F52-0040333594A3>
 Boolean u;
 Boolean v;
}

template TextureFilename {
 <A42790E1-7810-11cf-8F52-0040333594A3>
 STRING filename;
}

template Material {
 <3D82AB4D-62DA-11cf-AB39-0020AF71E433>
 ColorRGBA faceColor;
 FLOAT power;
 ColorRGB specularColor;
 ColorRGB emissiveColor;
 [...]
}

template MeshFace {
 <3D82AB5F-62DA-11cf-AB39-0020AF71E433>
 DWORD nFaceVertexIndices;
 array DWORD faceVertexIndices[nFaceVertexIndices];
}

template MeshFaceWraps {
 <4885AE62-78E8-11cf-8F52-0040333594A3>
 DWORD nFaceWrapValues;
 Boolean2d faceWrapValues;
}

template MeshTextureCoords {
 <F6F23F40-7686-11cf-8F52-0040333594A3>
 DWORD nTextureCoords;
 array Coords2d textureCoords[nTextureCoords];
}

template MeshMaterialList {
 <F6F23F42-7686-11cf-8F52-0040333594A3>
 DWORD nMaterials;
 DWORD nFaceIndexes;
 array DWORD faceIndexes[nFaceIndexes];
 [Material]
}

template MeshNormals {
 <F6F23F43-7686-11cf-8F52-0040333594A3>
 DWORD nNormals;
 array Vector normals[nNormals];
 DWORD nFaceNormals;
 array MeshFace faceNormals[nFaceNormals];
}

template MeshVertexColors {
 <1630B821-7842-11cf-8F52-0040333594A3>
 DWORD nVertexColors;
 array IndexedColor vertexColors[nVertexColors];
}

template Mesh {
 <3D82AB44-62DA-11cf-AB39-0020AF71E433>
 DWORD nVertices;
 array Vector vertices[nVertices];
 DWORD nFaces;
 array MeshFace faces[nFaces];
 [...]
}

Header{
1;
0;
1;
}

Mesh {
 520;
 1.30807;1.31641;-1.31562;,
 1.30807;1.24241;-1.31562;,
 -1.32293;1.24241;-1.31562;,
 -1.32293;1.31641;-1.31562;,
 1.30807;1.24241;-1.31562;,
 1.30807;1.24241;-1.23562;,
 -1.32293;1.24241;-1.23562;,
 -1.32293;1.24241;-1.31562;,
 1.30807;1.24241;-1.23562;,
 1.30807;1.31641;-1.23562;,
 -1.32293;1.31641;-1.23562;,
 -1.32293;1.24241;-1.23562;,
 1.30807;1.31641;-1.23562;,
 1.30807;1.31641;-1.31562;,
 -1.32293;1.31641;-1.31562;,
 -1.32293;1.31641;-1.23562;,
 1.30807;1.24241;-1.31562;,
 1.30807;1.31641;-1.31562;,
 -1.32293;1.31641;-1.31562;,
 -1.32293;1.24241;-1.31562;,
 1.23635;1.31835;-1.31173;,
 1.31035;1.31835;-1.31173;,
 1.31035;-1.31265;-1.31173;,
 1.23635;-1.31265;-1.31173;,
 1.31035;1.31835;-1.31173;,
 1.31035;1.31835;-1.23173;,
 1.31035;-1.31265;-1.23173;,
 1.31035;-1.31265;-1.31173;,
 1.31035;1.31835;-1.23173;,
 1.23635;1.31835;-1.23173;,
 1.23635;-1.31265;-1.23173;,
 1.31035;-1.31265;-1.23173;,
 1.23635;1.31835;-1.23173;,
 1.23635;1.31835;-1.31173;,
 1.23635;-1.31265;-1.31173;,
 1.23635;-1.31265;-1.23173;,
 1.31035;1.31835;-1.31173;,
 1.23635;1.31835;-1.31173;,
 1.23635;-1.31265;-1.31173;,
 1.31035;-1.31265;-1.31173;,
 -1.31694;1.31835;1.22440;,
 -1.24294;1.31835;1.22440;,
 -1.24294;-1.31265;1.22440;,
 -1.31694;-1.31265;1.22440;,
 -1.24294;1.31835;1.22440;,
 -1.24294;1.31835;1.30441;,
 -1.24294;-1.31265;1.30441;,
 -1.24294;-1.31265;1.22440;,
 -1.24294;1.31835;1.30441;,
 -1.31694;1.31835;1.30441;,
 -1.31694;-1.31265;1.30441;,
 -1.24294;-1.31265;1.30441;,
 -1.31694;1.31835;1.30441;,
 -1.31694;1.31835;1.22440;,
 -1.31694;-1.31265;1.22440;,
 -1.31694;-1.31265;1.30441;,
 -1.24294;1.31835;1.22440;,
 -1.31694;1.31835;1.22440;,
 -1.31694;-1.31265;1.22440;,
 -1.24294;-1.31265;1.22440;,
 -1.31694;1.31835;-1.31414;,
 -1.24294;1.31835;-1.31414;,
 -1.24294;-1.31265;-1.31414;,
 -1.31694;-1.31265;-1.31414;,
 -1.24294;1.31835;-1.31414;,
 -1.24294;1.31835;-1.23414;,
 -1.24294;-1.31265;-1.23414;,
 -1.24294;-1.31265;-1.31414;,
 -1.24294;1.31835;-1.23414;,
 -1.31694;1.31835;-1.23414;,
 -1.31694;-1.31265;-1.23414;,
 -1.24294;-1.31265;-1.23414;,
 -1.31694;1.31835;-1.23414;,
 -1.31694;1.31835;-1.31414;,
 -1.31694;-1.31265;-1.31414;,
 -1.31694;-1.31265;-1.23414;,
 -1.24294;1.31835;-1.31414;,
 -1.31694;1.31835;-1.31414;,
 -1.31694;-1.31265;-1.31414;,
 -1.24294;-1.31265;-1.31414;,
 1.32369;1.31641;1.23327;,
 1.32369;1.24241;1.23327;,
 -1.30731;1.24241;1.23327;,
 -1.30731;1.31641;1.23327;,
 1.32369;1.24241;1.23327;,
 1.32369;1.24241;1.31327;,
 -1.30731;1.24241;1.31327;,
 -1.30731;1.24241;1.23327;,
 1.32369;1.24241;1.31327;,
 1.32369;1.31641;1.31327;,
 -1.30731;1.31641;1.31327;,
 -1.30731;1.24241;1.31327;,
 1.32369;1.31641;1.31327;,
 1.32369;1.31641;1.23327;,
 -1.30731;1.31641;1.23327;,
 -1.30731;1.31641;1.31327;,
 1.32369;1.24241;1.23327;,
 1.32369;1.31641;1.23327;,
 -1.30731;1.31641;1.23327;,
 -1.30731;1.24241;1.23327;,
 1.23609;1.31641;-1.31342;,
 1.23609;1.24241;-1.31342;,
 1.23609;1.24241;1.31759;,
 1.23609;1.31641;1.31759;,
 1.23609;1.24241;-1.31342;,
 1.31609;1.24241;-1.31342;,
 1.31609;1.24241;1.31759;,
 1.23609;1.24241;1.31759;,
 1.31609;1.24241;-1.31342;,
 1.31609;1.31641;-1.31342;,
 1.31609;1.31641;1.31759;,
 1.31609;1.24241;1.31759;,
 1.31609;1.31641;-1.31342;,
 1.23609;1.31641;-1.31342;,
 1.23609;1.31641;1.31759;,
 1.31609;1.31641;1.31759;,
 1.23609;1.24241;-1.31342;,
 1.23609;1.31641;-1.31342;,
 1.23609;1.31641;1.31759;,
 1.23609;1.24241;1.31759;,
 -1.31346;1.31641;-1.31342;,
 -1.31346;1.24241;-1.31342;,
 -1.31346;1.24241;1.31759;,
 -1.31346;1.31641;1.31759;,
 -1.31346;1.24241;-1.31342;,
 -1.23346;1.24241;-1.31342;,
 -1.23346;1.24241;1.31759;,
 -1.31346;1.24241;1.31759;,
 -1.23346;1.24241;-1.31342;,
 -1.23346;1.31641;-1.31342;,
 -1.23346;1.31641;1.31759;,
 -1.23346;1.24241;1.31759;,
 -1.23346;1.31641;-1.31342;,
 -1.31346;1.31641;-1.31342;,
 -1.31346;1.31641;1.31759;,
 -1.23346;1.31641;1.31759;,
 -1.31346;1.24241;-1.31342;,
 -1.31346;1.31641;-1.31342;,
 -1.31346;1.31641;1.31759;,
 -1.31346;1.24241;1.31759;,
 1.23635;1.31835;1.23043;,
 1.31035;1.31835;1.23043;,
 1.31035;-1.31265;1.23043;,
 1.23635;-1.31265;1.23043;,
 1.31035;1.31835;1.23043;,
 1.31035;1.31835;1.31043;,
 1.31035;-1.31265;1.31043;,
 1.31035;-1.31265;1.23043;,
 1.31035;1.31835;1.31043;,
 1.23635;1.31835;1.31043;,
 1.23635;-1.31265;1.31043;,
 1.31035;-1.31265;1.31043;,
 1.23635;1.31835;1.31043;,
 1.23635;1.31835;1.23043;,
 1.23635;-1.31265;1.23043;,
 1.23635;-1.31265;1.31043;,
 1.31035;1.31835;1.23043;,
 1.23635;1.31835;1.23043;,
 1.23635;-1.31265;1.23043;,
 1.31035;-1.31265;1.23043;,
 1.30807;-1.24249;1.23096;,
 1.30807;-1.31649;1.23096;,
 -1.32293;-1.31649;1.23096;,
 -1.32293;-1.24249;1.23096;,
 1.30807;-1.31649;1.23096;,
 1.30807;-1.31649;1.31096;,
 -1.32293;-1.31649;1.31096;,
 -1.32293;-1.31649;1.23096;,
 1.30807;-1.31649;1.31096;,
 1.30807;-1.24249;1.31096;,
 -1.32293;-1.24249;1.31096;,
 -1.32293;-1.31649;1.31096;,
 1.30807;-1.24249;1.31096;,
 1.30807;-1.24249;1.23096;,
 -1.32293;-1.24249;1.23096;,
 -1.32293;-1.24249;1.31096;,
 1.30807;-1.31649;1.23096;,
 1.30807;-1.24249;1.23096;,
 -1.32293;-1.24249;1.23096;,
 -1.32293;-1.31649;1.23096;,
 1.30807;-1.24249;-1.31751;,
 1.30807;-1.31649;-1.31751;,
 -1.32293;-1.31649;-1.31751;,
 -1.32293;-1.24249;-1.31751;,
 1.30807;-1.31649;-1.31751;,
 1.30807;-1.31649;-1.23751;,
 -1.32293;-1.31649;-1.23751;,
 -1.32293;-1.31649;-1.31751;,
 1.30807;-1.31649;-1.23751;,
 1.30807;-1.24249;-1.23751;,
 -1.32293;-1.24249;-1.23751;,
 -1.32293;-1.31649;-1.23751;,
 1.30807;-1.24249;-1.23751;,
 1.30807;-1.24249;-1.31751;,
 -1.32293;-1.24249;-1.31751;,
 -1.32293;-1.24249;-1.23751;,
 1.30807;-1.31649;-1.31751;,
 1.30807;-1.24249;-1.31751;,
 -1.32293;-1.24249;-1.31751;,
 -1.32293;-1.31649;-1.31751;,
 1.23484;-1.24249;-1.31768;,
 1.23484;-1.31649;-1.31768;,
 1.23484;-1.31649;1.31332;,
 1.23484;-1.24249;1.31332;,
 1.23484;-1.31649;-1.31768;,
 1.31484;-1.31649;-1.31768;,
 1.31484;-1.31649;1.31332;,
 1.23484;-1.31649;1.31332;,
 1.31484;-1.31649;-1.31768;,
 1.31484;-1.24249;-1.31768;,
 1.31484;-1.24249;1.31332;,
 1.31484;-1.31649;1.31332;,
 1.31484;-1.24249;-1.31768;,
 1.23484;-1.24249;-1.31768;,
 1.23484;-1.24249;1.31332;,
 1.31484;-1.24249;1.31332;,
 1.23484;-1.31649;-1.31768;,
 1.23484;-1.24249;-1.31768;,
 1.23484;-1.24249;1.31332;,
 1.23484;-1.31649;1.31332;,
 -1.32308;-1.24249;-1.31768;,
 -1.32308;-1.31649;-1.31768;,
 -1.32308;-1.31649;1.31332;,
 -1.32308;-1.24249;1.31332;,
 -1.32308;-1.31649;-1.31768;,
 -1.24308;-1.31649;-1.31768;,
 -1.24308;-1.31649;1.31332;,
 -1.32308;-1.31649;1.31332;,
 -1.24308;-1.31649;-1.31768;,
 -1.24308;-1.24249;-1.31768;,
 -1.24308;-1.24249;1.31332;,
 -1.24308;-1.31649;1.31332;,
 -1.24308;-1.24249;-1.31768;,
 -1.32308;-1.24249;-1.31768;,
 -1.32308;-1.24249;1.31332;,
 -1.24308;-1.24249;1.31332;,
 -1.32308;-1.31649;-1.31768;,
 -1.32308;-1.24249;-1.31768;,
 -1.32308;-1.24249;1.31332;,
 -1.32308;-1.31649;1.31332;,
 4.12829;-1.71843;-2.35762;,
 4.07597;-1.67610;-2.38838;,
 4.07597;1.75657;2.33628;,
 4.12829;1.71424;2.36704;,
 4.07597;-1.67610;-2.38838;,
 4.01940;-1.72186;-2.35513;,
 4.01940;1.71080;2.36953;,
 4.07597;1.75657;2.33628;,
 4.01940;-1.72186;-2.35513;,
 4.07173;-1.76419;-2.32437;,
 4.07173;1.66847;2.40029;,
 4.01940;1.71080;2.36953;,
 4.07173;-1.76419;-2.32437;,
 4.12829;-1.71843;-2.35762;,
 4.12829;1.71424;2.36704;,
 4.07173;1.66847;2.40029;,
 4.07597;-1.67610;-2.38838;,
 4.12829;-1.71843;-2.35762;,
 4.12829;1.71424;2.36704;,
 4.07597;1.75657;2.33628;,
 0.04593;1.58088;-4.76184;,
 -0.00640;1.62322;-4.79260;,
 -0.00640;5.05588;-0.06794;,
 0.04593;5.01355;-0.03718;,
 -0.00640;1.62322;-4.79260;,
 -0.06296;1.57745;-4.75935;,
 -0.06296;5.01012;-0.03469;,
 -0.00640;5.05588;-0.06794;,
 -0.06296;1.57745;-4.75935;,
 -0.01064;1.53512;-4.72859;,
 -0.01064;4.96778;-0.00393;,
 -0.06296;5.01012;-0.03469;,
 -0.01064;1.53512;-4.72859;,
 0.04593;1.58088;-4.76184;,
 0.04593;5.01355;-0.03718;,
 -0.01064;4.96778;-0.00393;,
 -0.00640;1.62322;-4.79260;,
 0.04593;1.58088;-4.76184;,
 0.04593;5.01355;-0.03718;,
 -0.00640;5.05588;-0.06794;,
 4.12811;1.71013;2.36107;,
 4.12811;1.66663;2.30120;,
 -0.00139;5.00747;-0.12606;,
 -0.00139;5.05097;-0.06619;,
 4.12811;1.66663;2.30120;,
 4.07154;1.62087;2.33445;,
 -0.05796;4.96170;-0.09281;,
 -0.00139;5.00747;-0.12606;,
 4.07154;1.62087;2.33445;,
 4.07154;1.66436;2.39432;,
 -0.05796;5.00520;-0.03294;,
 -0.05796;4.96170;-0.09281;,
 4.07154;1.66436;2.39432;,
 4.12811;1.71013;2.36107;,
 -0.00139;5.05097;-0.06619;,
 -0.05796;5.00520;-0.03294;,
 4.12811;1.66663;2.30120;,
 4.12811;1.71013;2.36107;,
 -0.00139;5.05097;-0.06619;,
 -0.00139;5.00747;-0.12606;,
 4.12811;-1.67801;-2.30230;,
 4.12811;-1.72151;-2.36217;,
 -0.00139;1.61933;-4.78943;,
 -0.00139;1.66282;-4.72956;,
 4.12811;-1.72151;-2.36217;,
 4.07154;-1.76728;-2.32892;,
 -0.05796;1.57356;-4.75618;,
 -0.00139;1.61933;-4.78943;,
 4.07154;-1.76728;-2.32892;,
 4.07154;-1.72378;-2.26905;,
 -0.05796;1.61706;-4.69631;,
 -0.05796;1.57356;-4.75618;,
 4.07154;-1.72378;-2.26905;,
 4.12811;-1.67801;-2.30230;,
 -0.00139;1.66282;-4.72956;,
 -0.05796;1.61706;-4.69631;,
 4.12811;-1.72151;-2.36217;,
 4.12811;-1.67801;-2.30230;,
 -0.00139;1.66282;-4.72956;,
 -0.00139;1.61933;-4.78943;,
 4.07349;1.75394;2.32215;,
 4.07349;1.71044;2.26228;,
 -0.05601;-1.63040;4.68955;,
 -0.05601;-1.58690;4.74941;,
 4.07349;1.71044;2.26228;,
 4.13006;1.66468;2.29553;,
 0.00056;-1.67616;4.72279;,
 -0.05601;-1.63040;4.68955;,
 4.13006;1.66468;2.29553;,
 4.13006;1.70817;2.35540;,
 0.00056;-1.63267;4.78266;,
 0.00056;-1.67616;4.72279;,
 4.13006;1.70817;2.35540;,
 4.07349;1.75394;2.32215;,
 -0.05601;-1.58690;4.74941;,
 0.00056;-1.63267;4.78266;,
 4.07349;1.71044;2.26228;,
 4.07349;1.75394;2.32215;,
 -0.05601;-1.58690;4.74941;,
 -0.05601;-1.63040;4.68955;,
 4.07349;-1.62983;-2.33521;,
 4.07349;-1.67333;-2.39508;,
 -0.05601;-5.01417;0.03218;,
 -0.05601;-4.97067;0.09205;,
 4.07349;-1.67333;-2.39508;,
 4.13006;-1.71909;-2.36183;,
 0.00056;-5.05993;0.06543;,
 -0.05601;-5.01417;0.03218;,
 4.13006;-1.71909;-2.36183;,
 4.13006;-1.67560;-2.30196;,
 0.00056;-5.01644;0.12530;,
 0.00056;-5.05993;0.06543;,
 4.13006;-1.67560;-2.30196;,
 4.07349;-1.62983;-2.33521;,
 -0.05601;-4.97067;0.09205;,
 0.00056;-5.01644;0.12530;,
 4.07349;-1.67333;-2.39508;,
 4.07349;-1.62983;-2.33521;,
 -0.05601;-4.97067;0.09205;,
 -0.05601;-5.01417;0.03218;,
 -0.00525;1.66764;-4.73580;,
 -0.00525;1.62414;-4.79566;,
 -4.13475;-1.71670;-2.36840;,
 -4.13475;-1.67320;-2.30853;,
 -0.00525;1.62414;-4.79566;,
 0.05132;1.57837;-4.76241;,
 -4.07818;-1.76247;-2.33515;,
 -4.13475;-1.71670;-2.36840;,
 0.05132;1.57837;-4.76241;,
 0.05132;1.62187;-4.70254;,
 -4.07818;-1.71897;-2.27528;,
 -4.07818;-1.76247;-2.33515;,
 0.05132;1.62187;-4.70254;,
 -0.00525;1.66764;-4.73580;,
 -4.13475;-1.67320;-2.30853;,
 -4.07818;-1.71897;-2.27528;,
 -0.00525;1.62414;-4.79566;,
 -0.00525;1.66764;-4.73580;,
 -4.13475;-1.67320;-2.30853;,
 -4.13475;-1.71670;-2.36840;,
 -0.00525;5.05519;-0.07322;,
 -0.00525;5.01170;-0.13309;,
 -4.13475;1.67086;2.29417;,
 -4.13475;1.71436;2.35404;,
 -0.00525;5.01170;-0.13309;,
 0.05132;4.96593;-0.09984;,
 -4.07818;1.62510;2.32742;,
 -4.13475;1.67086;2.29417;,
 0.05132;4.96593;-0.09984;,
 0.05132;5.00943;-0.03997;,
 -4.07818;1.66859;2.38729;,
 -4.07818;1.62510;2.32742;,
 0.05132;5.00943;-0.03997;,
 -0.00525;5.05519;-0.07322;,
 -4.13475;1.71436;2.35404;,
 -4.07818;1.66859;2.38729;,
 -0.00525;5.01170;-0.13309;,
 -0.00525;5.05519;-0.07322;,
 -4.13475;1.71436;2.35404;,
 -4.13475;1.67086;2.29417;,
 0.05335;-1.58689;4.75552;,
 0.05335;-1.63039;4.69565;,
 -4.07616;1.71045;2.26839;,
 -4.07616;1.75395;2.32826;,
 0.05335;-1.63039;4.69565;,
 -0.00322;-1.67615;4.72891;,
 -4.13272;1.66469;2.30164;,
 -4.07616;1.71045;2.26839;,
 -0.00322;-1.67615;4.72891;,
 -0.00322;-1.63266;4.78877;,
 -4.13272;1.70818;2.36151;,
 -4.13272;1.66469;2.30164;,
 -0.00322;-1.63266;4.78877;,
 0.05335;-1.58689;4.75552;,
 -4.07616;1.75395;2.32826;,
 -4.13272;1.70818;2.36151;,
 0.05335;-1.63039;4.69565;,
 0.05335;-1.58689;4.75552;,
 -4.07616;1.75395;2.32826;,
 -4.07616;1.71045;2.26839;,
 0.05466;-5.02008;0.03237;,
 0.00233;-4.97775;0.00162;,
 0.00233;-1.54509;4.72628;,
 0.05466;-1.58742;4.75703;,
 0.00233;-4.97775;0.00162;,
 -0.05423;-5.02352;0.03487;,
 -0.05423;-1.59085;4.75953;,
 0.00233;-1.54509;4.72628;,
 -0.05423;-5.02352;0.03487;,
 -0.00191;-5.06585;0.06562;,
 -0.00191;-1.63318;4.79028;,
 -0.05423;-1.59085;4.75953;,
 -0.00191;-5.06585;0.06562;,
 0.05466;-5.02008;0.03237;,
 0.05466;-1.58742;4.75703;,
 -0.00191;-1.63318;4.79028;,
 0.00233;-4.97775;0.00162;,
 0.05466;-5.02008;0.03237;,
 0.05466;-1.58742;4.75703;,
 0.00233;-1.54509;4.72628;,
 -4.02448;-1.71999;-2.36529;,
 -4.07681;-1.67765;-2.39604;,
 -4.07681;1.75501;2.32861;,
 -4.02448;1.71268;2.35937;,
 -4.07681;-1.67765;-2.39604;,
 -4.13338;-1.72342;-2.36279;,
 -4.13338;1.70925;2.36186;,
 -4.07681;1.75501;2.32861;,
 -4.13338;-1.72342;-2.36279;,
 -4.08105;-1.76575;-2.33204;,
 -4.08105;1.66691;2.39262;,
 -4.13338;1.70925;2.36186;,
 -4.08105;-1.76575;-2.33204;,
 -4.02448;-1.71999;-2.36529;,
 -4.02448;1.71268;2.35937;,
 -4.08105;1.66691;2.39262;,
 -4.07681;-1.67765;-2.39604;,
 -4.02448;-1.71999;-2.36529;,
 -4.02448;1.71268;2.35937;,
 -4.07681;1.75501;2.32861;,
 0.05335;-4.97621;0.09052;,
 0.05335;-5.01971;0.03065;,
 -4.07616;-1.67887;-2.39661;,
 -4.07616;-1.63538;-2.33674;,
 0.05335;-5.01971;0.03065;,
 -0.00322;-5.06548;0.06390;,
 -4.13272;-1.72464;-2.36336;,
 -4.07616;-1.67887;-2.39661;,
 -0.00322;-5.06548;0.06390;,
 -0.00322;-5.02198;0.12377;,
 -4.13273;-1.68114;-2.30349;,
 -4.13272;-1.72464;-2.36336;,
 -0.00322;-5.02198;0.12377;,
 0.05335;-4.97621;0.09052;,
 -4.07616;-1.63538;-2.33674;,
 -4.13273;-1.68114;-2.30349;,
 0.05335;-5.01971;0.03065;,
 0.05335;-4.97621;0.09052;,
 -4.07616;-1.63538;-2.33674;,
 -4.07616;-1.67887;-2.39661;,
 -1.29549;1.30150;-1.29604;,
 -1.29549;-1.30150;-1.29604;,
 1.29551;-1.30150;-1.29604;,
 1.29551;1.30150;-1.29604;,
 1.29551;1.30150;-1.29604;,
 1.29551;-1.30150;-1.29604;,
 1.29551;-1.30150;1.29596;,
 1.29551;1.30150;1.29596;,
 1.29551;1.30150;1.29596;,
 1.29551;-1.30150;1.29596;,
 -1.29549;-1.30150;1.29596;,
 -1.29549;1.30150;1.29596;,
 -1.29549;1.30150;1.29596;,
 -1.29549;-1.30150;1.29596;,
 -1.29549;-1.30150;-1.29604;,
 -1.29549;1.30150;-1.29604;,
 -1.29549;1.30150;-1.29604;,
 1.29551;1.30150;-1.29604;,
 -1.29549;-1.30150;-1.29604;,
 1.29551;-1.30150;-1.29604;,
 -0.05424;4.98362;-0.05857;,
 -0.05424;1.58916;-4.73064;,
 -4.09889;-1.68303;-2.35326;,
 -4.09889;1.71143;2.31882;,
 -0.05424;1.58916;-4.73064;,
 4.03849;-1.72193;-2.32499;,
 -0.00616;-4.99412;0.05239;,
 -4.09889;-1.68303;-2.35326;,
 4.03849;-1.72193;-2.32499;,
 4.03849;1.67253;2.34708;,
 -0.00616;-1.59966;4.72446;,
 -0.00616;-4.99412;0.05239;,
 4.03849;1.67253;2.34708;,
 -0.05424;4.98362;-0.05857;,
 -4.09889;1.71143;2.31882;,
 -0.00616;-1.59966;4.72446;,
 -0.05424;1.58916;-4.73064;,
 -0.05424;4.98362;-0.05857;,
 -4.09889;1.71143;2.31882;,
 -4.09889;-1.68303;-2.35326;;
 
 169;
 4;0,1,2,3;,
 4;4,5,6,7;,
 4;8,9,10,11;,
 4;12,13,14,15;,
 4;12,5,16,17;,
 4;18,19,6,15;,
 4;20,21,22,23;,
 4;24,25,26,27;,
 4;28,29,30,31;,
 4;32,33,34,35;,
 4;32,25,36,37;,
 4;38,39,26,35;,
 4;40,41,42,43;,
 4;44,45,46,47;,
 4;48,49,50,51;,
 4;52,53,54,55;,
 4;52,45,56,57;,
 4;58,59,46,55;,
 4;60,61,62,63;,
 4;64,65,66,67;,
 4;68,69,70,71;,
 4;72,73,74,75;,
 4;72,65,76,77;,
 4;78,79,66,75;,
 4;80,81,82,83;,
 4;84,85,86,87;,
 4;88,89,90,91;,
 4;92,93,94,95;,
 4;92,85,96,97;,
 4;98,99,86,95;,
 4;100,101,102,103;,
 4;104,105,106,107;,
 4;108,109,110,111;,
 4;112,113,114,115;,
 4;112,105,116,117;,
 4;118,119,106,115;,
 4;120,121,122,123;,
 4;124,125,126,127;,
 4;128,129,130,131;,
 4;132,133,134,135;,
 4;132,125,136,137;,
 4;138,139,126,135;,
 4;140,141,142,143;,
 4;144,145,146,147;,
 4;148,149,150,151;,
 4;152,153,154,155;,
 4;152,145,156,157;,
 4;158,159,146,155;,
 4;160,161,162,163;,
 4;164,165,166,167;,
 4;168,169,170,171;,
 4;172,173,174,175;,
 4;172,165,176,177;,
 4;178,179,166,175;,
 4;180,181,182,183;,
 4;184,185,186,187;,
 4;188,189,190,191;,
 4;192,193,194,195;,
 4;192,185,196,197;,
 4;198,199,186,195;,
 4;200,201,202,203;,
 4;204,205,206,207;,
 4;208,209,210,211;,
 4;212,213,214,215;,
 4;212,205,216,217;,
 4;218,219,206,215;,
 4;220,221,222,223;,
 4;224,225,226,227;,
 4;228,229,230,231;,
 4;232,233,234,235;,
 4;232,225,236,237;,
 4;238,239,226,235;,
 4;240,241,242,243;,
 4;244,245,246,247;,
 4;248,249,250,251;,
 4;252,253,254,255;,
 4;252,245,256,257;,
 4;258,259,246,255;,
 4;260,261,262,263;,
 4;264,265,266,267;,
 4;268,269,270,271;,
 4;272,273,274,275;,
 4;272,265,276,277;,
 4;278,279,266,275;,
 4;280,281,282,283;,
 4;284,285,286,287;,
 4;288,289,290,291;,
 4;292,293,294,295;,
 4;292,285,296,297;,
 4;298,299,286,295;,
 4;300,301,302,303;,
 4;304,305,306,307;,
 4;308,309,310,311;,
 4;312,313,314,315;,
 4;312,305,316,317;,
 4;318,319,306,315;,
 4;320,321,322,323;,
 4;324,325,326,327;,
 4;328,329,330,331;,
 4;332,333,334,335;,
 4;332,325,336,337;,
 4;338,339,326,335;,
 4;340,341,342,343;,
 4;344,345,346,347;,
 4;348,349,350,351;,
 4;352,353,354,355;,
 4;352,345,356,357;,
 4;358,359,346,355;,
 4;360,361,362,363;,
 4;364,365,366,367;,
 4;368,369,370,371;,
 4;372,373,374,375;,
 4;372,365,376,377;,
 4;378,379,366,375;,
 4;380,381,382,383;,
 4;384,385,386,387;,
 4;388,389,390,391;,
 4;392,393,394,395;,
 4;392,385,396,397;,
 4;398,399,386,395;,
 4;400,401,402,403;,
 4;404,405,406,407;,
 4;408,409,410,411;,
 4;412,413,414,415;,
 4;412,405,416,417;,
 4;418,419,406,415;,
 4;420,421,422,423;,
 4;424,425,426,427;,
 4;428,429,430,431;,
 4;432,433,434,435;,
 4;432,425,436,437;,
 4;438,439,426,435;,
 4;440,441,442,443;,
 4;444,445,446,447;,
 4;448,449,450,451;,
 4;452,453,454,455;,
 4;452,445,456,457;,
 4;458,459,446,455;,
 4;460,461,462,463;,
 4;464,465,466,467;,
 4;468,469,470,471;,
 4;472,473,474,475;,
 4;472,465,476,477;,
 4;478,479,466,475;,
 4;480,481,482,483;,
 4;484,485,486,487;,
 4;488,489,490,491;,
 4;492,493,494,495;,
 4;492,496,497,487;,
 4;498,493,486,499;,
 4;500,501,502,503;,
 4;504,505,506,507;,
 4;508,509,510,511;,
 4;512,513,514,515;,
 4;512,505,516,517;,
 4;518,519,506,515;,
 4;503,502,501,500;,
 4;507,506,505,504;,
 4;511,510,509,508;,
 4;515,514,513,512;,
 4;517,516,505,512;,
 4;515,506,519,518;,
 4;493,494,495,492;,
 4;483,482,481,480;,
 4;487,486,485,484;,
 4;491,490,489,488;,
 4;495,494,493,492;,
 4;487,497,496,492;,
 4;499,486,493,498;;
 
 MeshMaterialList {
  2;
  169;
  0,
  0,
  0,
  0,
  0,
  0,
  0,
  0,
  0,
  0,
  0,
  0,
  0,
  0,
  0,
  0,
  0,
  0,
  0,
  0,
  0,
  0,
  0,
  0,
  0,
  0,
  0,
  0,
  0,
  0,
  0,
  0,
  0,
  0,
  0,
  0,
  0,
  0,
  0,
  0,
  0,
  0,
  0,
  0,
  0,
  0,
  0,
  0,
  0,
  0,
  0,
  0,
  0,
  0,
  0,
  0,
  0,
  0,
  0,
  0,
  0,
  0,
  0,
  0,
  0,
  0,
  0,
  0,
  0,
  0,
  0,
  0,
  0,
  0,
  0,
  0,
  0,
  0,
  0,
  0,
  0,
  0,
  0,
  0,
  0,
  0,
  0,
  0,
  0,
  0,
  0,
  0,
  0,
  0,
  0,
  0,
  0,
  0,
  0,
  0,
  0,
  0,
  0,
  0,
  0,
  0,
  0,
  0,
  0,
  0,
  0,
  0,
  0,
  0,
  0,
  0,
  0,
  0,
  0,
  0,
  0,
  0,
  0,
  0,
  0,
  0,
  0,
  0,
  0,
  0,
  0,
  0,
  0,
  0,
  0,
  0,
  0,
  0,
  0,
  0,
  0,
  0,
  0,
  0,
  1,
  1,
  1,
  1,
  1,
  1,
  1,
  1,
  1,
  1,
  1,
  1,
  1,
  1,
  1,
  1,
  1,
  1,
  1,
  1,
  1,
  1,
  1,
  1,
  1;;
  Material {
   0.364000;0.323200;0.408000;1.000000;;
   5.000000;
   0.840000;0.840000;0.840000;;
   0.054600;0.048480;0.061200;;
  }
  Material {
   0.135200;0.702400;0.702400;0.460000;;
   5.000000;
   0.000000;0.000000;0.000000;;
   0.000000;0.000000;0.000000;;
  }
 }
 MeshNormals {
  90;
  0.000000;0.000000;-1.000000;,
  0.000000;-1.000000;-0.000000;,
  0.000000;0.000000;1.000000;,
  1.000000;0.000000;0.000000;,
  -1.000000;0.000000;0.000000;,
  0.707111;0.572058;-0.415624;,
  -0.707104;0.572064;-0.415628;,
  -0.707103;-0.572064;0.415629;,
  0.707107;0.572061;-0.415627;,
  -0.707107;0.572062;-0.415627;,
  -0.707109;-0.572060;0.415626;,
  0.707107;0.572059;-0.415630;,
  -0.000000;-0.587785;-0.809017;,
  -0.707107;-0.572057;0.415633;,
  0.707107;0.572058;-0.415632;,
  0.000008;-0.587779;-0.809022;,
  -0.707107;-0.572062;0.415626;,
  -0.707107;0.572062;-0.415625;,
  -0.000005;-0.587782;-0.809020;,
  0.707107;-0.572064;0.415624;,
  -0.707107;0.572062;-0.415626;,
  -0.000004;-0.587782;-0.809019;,
  0.707107;-0.572061;0.415627;,
  -0.707107;0.572059;-0.415629;,
  -0.000002;-0.587784;-0.809018;,
  0.707107;-0.572065;0.415621;,
  -0.707107;0.572059;-0.415630;,
  -0.000001;-0.587785;-0.809018;,
  0.707107;-0.572063;0.415625;,
  0.707107;0.572064;-0.415623;,
  -0.000004;-0.587788;-0.809015;,
  -0.707107;-0.572057;0.415633;,
  0.707108;0.572060;-0.415626;,
  -0.707106;0.572062;-0.415627;,
  -0.707109;-0.572059;0.415626;,
  0.707111;0.572058;-0.415624;,
  -0.707107;0.572061;-0.415627;,
  -0.707107;-0.572061;0.415627;,
  0.707107;0.572062;-0.415625;,
  -0.000000;-0.587785;-0.809017;,
  -0.707107;-0.572063;0.415624;,
  -0.707107;0.572062;-0.415627;,
  0.000000;-0.587785;-0.809017;,
  0.707107;-0.572061;0.415627;,
  0.000000;1.000000;0.000000;,
  0.707116;-0.572054;0.415622;,
  0.000005;-0.587785;-0.809017;,
  -0.000002;0.587784;0.809018;,
  0.707103;-0.572065;0.415629;,
  0.000011;-0.587783;-0.809019;,
  0.000004;0.587786;0.809016;,
  -0.000000;0.587785;0.809017;,
  0.707106;-0.572065;0.415622;,
  -0.707109;0.572055;-0.415633;,
  -0.000001;0.587784;0.809018;,
  0.707103;-0.572065;0.415628;,
  -0.707106;0.572066;-0.415623;,
  -0.000003;0.587787;0.809015;,
  0.707107;0.572061;-0.415626;,
  -0.707100;-0.572065;0.415633;,
  -0.000005;0.587789;0.809014;,
  0.707114;0.572059;-0.415618;,
  -0.707102;-0.572066;0.415629;,
  -0.000002;0.587786;0.809016;,
  0.707106;0.572059;-0.415631;,
  -0.707109;-0.572064;0.415620;,
  0.000001;0.587784;0.809018;,
  0.707103;0.572064;-0.415629;,
  -0.707111;-0.572058;0.415626;,
  -0.000006;0.587781;0.809020;,
  0.707105;-0.572066;0.415623;,
  -0.707109;0.572057;-0.415629;,
  0.707106;-0.572062;0.415627;,
  0.000003;-0.587790;-0.809013;,
  -0.000006;0.587787;0.809016;,
  0.707107;-0.572061;0.415627;,
  -0.000001;-0.587791;-0.809013;,
  -0.000002;0.587789;0.809014;,
  0.000000;0.587785;0.809017;,
  0.707104;-0.572066;0.415625;,
  -0.707102;0.572065;-0.415632;,
  0.000000;0.587785;0.809017;,
  0.707107;0.572061;-0.415627;,
  -0.707107;-0.572062;0.415627;,
  0.707107;-0.572062;0.415627;,
  -0.000000;0.587785;0.809017;,
  -0.707107;0.572061;-0.415627;,
  -0.000000;-0.587785;-0.809017;,
  -0.707107;-0.572061;0.415627;,
  0.707107;0.572062;-0.415627;;
  169;
  4;0,0,0,0;,
  4;1,1,1,1;,
  4;2,2,2,2;,
  4;44,44,44,44;,
  4;3,3,3,3;,
  4;4,4,4,4;,
  4;0,0,0,0;,
  4;3,3,3,3;,
  4;2,2,2,2;,
  4;4,4,4,4;,
  4;44,44,44,44;,
  4;1,1,1,1;,
  4;0,0,0,0;,
  4;3,3,3,3;,
  4;2,2,2,2;,
  4;4,4,4,4;,
  4;44,44,44,44;,
  4;1,1,1,1;,
  4;0,0,0,0;,
  4;3,3,3,3;,
  4;2,2,2,2;,
  4;4,4,4,4;,
  4;44,44,44,44;,
  4;1,1,1,1;,
  4;0,0,0,0;,
  4;1,1,1,1;,
  4;2,2,2,2;,
  4;44,44,44,44;,
  4;3,3,3,3;,
  4;4,4,4,4;,
  4;4,4,4,4;,
  4;1,1,1,1;,
  4;3,3,3,3;,
  4;44,44,44,44;,
  4;0,0,0,0;,
  4;2,2,2,2;,
  4;4,4,4,4;,
  4;1,1,1,1;,
  4;3,3,3,3;,
  4;44,44,44,44;,
  4;0,0,0,0;,
  4;2,2,2,2;,
  4;0,0,0,0;,
  4;3,3,3,3;,
  4;2,2,2,2;,
  4;4,4,4,4;,
  4;44,44,44,44;,
  4;1,1,1,1;,
  4;0,0,0,0;,
  4;1,1,1,1;,
  4;2,2,2,2;,
  4;44,44,44,44;,
  4;3,3,3,3;,
  4;4,4,4,4;,
  4;0,0,0,0;,
  4;1,1,1,1;,
  4;2,2,2,2;,
  4;44,44,44,44;,
  4;3,3,3,3;,
  4;4,4,4,4;,
  4;4,4,4,4;,
  4;1,1,1,1;,
  4;3,3,3,3;,
  4;44,44,44,44;,
  4;0,0,0,0;,
  4;2,2,2,2;,
  4;4,4,4,4;,
  4;1,1,1,1;,
  4;3,3,3,3;,
  4;44,44,44,44;,
  4;0,0,0,0;,
  4;2,2,2,2;,
  4;5,5,5,5;,
  4;6,6,6,6;,
  4;7,7,7,7;,
  4;45,45,45,45;,
  4;46,46,46,46;,
  4;47,47,47,47;,
  4;8,8,8,8;,
  4;9,9,9,9;,
  4;10,10,10,10;,
  4;48,48,48,48;,
  4;49,49,49,49;,
  4;50,50,50,50;,
  4;11,11,11,11;,
  4;12,12,12,12;,
  4;13,13,13,13;,
  4;51,51,51,51;,
  4;52,52,52,52;,
  4;53,53,53,53;,
  4;14,14,14,14;,
  4;15,15,15,15;,
  4;16,16,16,16;,
  4;54,54,54,54;,
  4;55,55,55,55;,
  4;56,56,56,56;,
  4;17,17,17,17;,
  4;18,18,18,18;,
  4;19,19,19,19;,
  4;57,57,57,57;,
  4;58,58,58,58;,
  4;59,59,59,59;,
  4;20,20,20,20;,
  4;21,21,21,21;,
  4;22,22,22,22;,
  4;60,60,60,60;,
  4;61,61,61,61;,
  4;62,62,62,62;,
  4;23,23,23,23;,
  4;24,24,24,24;,
  4;25,25,25,25;,
  4;63,63,63,63;,
  4;64,64,64,64;,
  4;65,65,65,65;,
  4;26,26,26,26;,
  4;27,27,27,27;,
  4;28,28,28,28;,
  4;66,66,66,66;,
  4;67,67,67,67;,
  4;68,68,68,68;,
  4;29,29,29,29;,
  4;30,30,30,30;,
  4;31,31,31,31;,
  4;69,69,69,69;,
  4;70,70,70,70;,
  4;71,71,71,71;,
  4;32,32,32,32;,
  4;33,33,33,33;,
  4;34,34,34,34;,
  4;72,72,72,72;,
  4;73,73,73,73;,
  4;74,74,74,74;,
  4;35,35,35,35;,
  4;36,36,36,36;,
  4;37,37,37,37;,
  4;75,75,75,75;,
  4;76,76,76,76;,
  4;77,77,77,77;,
  4;38,38,38,38;,
  4;39,39,39,39;,
  4;40,40,40,40;,
  4;78,78,78,78;,
  4;79,79,79,79;,
  4;80,80,80,80;,
  4;2,2,2,2;,
  4;4,4,4,4;,
  4;0,0,0,0;,
  4;3,3,3,3;,
  4;1,1,1,1;,
  4;44,44,44,44;,
  4;41,41,41,41;,
  4;42,42,42,42;,
  4;43,43,43,43;,
  4;81,81,81,81;,
  4;82,82,82,82;,
  4;83,83,83,83;,
  4;84,84,84,84;,
  4;85,85,85,85;,
  4;86,86,86,86;,
  4;87,87,87,87;,
  4;88,88,88,88;,
  4;89,89,89,89;,
  4;3,3,3,3;,
  4;0,0,0,0;,
  4;3,3,3,3;,
  4;2,2,2,2;,
  4;4,4,4,4;,
  4;44,44,44,44;,
  4;1,1,1,1;;
 }
 MeshTextureCoords {
  520;
  0.000000;0.000000;,
  1.000000;0.000000;,
  1.000000;1.000000;,
  0.000000;1.000000;,
  0.000000;0.000000;,
  1.000000;0.000000;,
  1.000000;1.000000;,
  0.000000;1.000000;,
  0.000000;0.000000;,
  1.000000;0.000000;,
  1.000000;1.000000;,
  0.000000;1.000000;,
  0.000000;0.000000;,
  1.000000;0.000000;,
  1.000000;1.000000;,
  0.000000;1.000000;,
  1.000000;1.000000;,
  0.000000;1.000000;,
  0.000000;0.000000;,
  1.000000;0.000000;,
  0.000000;0.000000;,
  1.000000;0.000000;,
  1.000000;1.000000;,
  0.000000;1.000000;,
  0.000000;0.000000;,
  1.000000;0.000000;,
  1.000000;1.000000;,
  0.000000;1.000000;,
  0.000000;0.000000;,
  1.000000;0.000000;,
  1.000000;1.000000;,
  0.000000;1.000000;,
  0.000000;0.000000;,
  1.000000;0.000000;,
  1.000000;1.000000;,
  0.000000;1.000000;,
  1.000000;1.000000;,
  0.000000;1.000000;,
  0.000000;0.000000;,
  1.000000;0.000000;,
  0.000000;0.000000;,
  1.000000;0.000000;,
  1.000000;1.000000;,
  0.000000;1.000000;,
  0.000000;0.000000;,
  1.000000;0.000000;,
  1.000000;1.000000;,
  0.000000;1.000000;,
  0.000000;0.000000;,
  1.000000;0.000000;,
  1.000000;1.000000;,
  0.000000;1.000000;,
  0.000000;0.000000;,
  1.000000;0.000000;,
  1.000000;1.000000;,
  0.000000;1.000000;,
  1.000000;1.000000;,
  0.000000;1.000000;,
  0.000000;0.000000;,
  1.000000;0.000000;,
  0.000000;0.000000;,
  1.000000;0.000000;,
  1.000000;1.000000;,
  0.000000;1.000000;,
  0.000000;0.000000;,
  1.000000;0.000000;,
  1.000000;1.000000;,
  0.000000;1.000000;,
  0.000000;0.000000;,
  1.000000;0.000000;,
  1.000000;1.000000;,
  0.000000;1.000000;,
  0.000000;0.000000;,
  1.000000;0.000000;,
  1.000000;1.000000;,
  0.000000;1.000000;,
  1.000000;1.000000;,
  0.000000;1.000000;,
  0.000000;0.000000;,
  1.000000;0.000000;,
  0.000000;0.000000;,
  1.000000;0.000000;,
  1.000000;1.000000;,
  0.000000;1.000000;,
  0.000000;0.000000;,
  1.000000;0.000000;,
  1.000000;1.000000;,
  0.000000;1.000000;,
  0.000000;0.000000;,
  1.000000;0.000000;,
  1.000000;1.000000;,
  0.000000;1.000000;,
  0.000000;0.000000;,
  1.000000;0.000000;,
  1.000000;1.000000;,
  0.000000;1.000000;,
  1.000000;1.000000;,
  0.000000;1.000000;,
  0.000000;0.000000;,
  1.000000;0.000000;,
  0.000000;0.000000;,
  1.000000;0.000000;,
  1.000000;1.000000;,
  0.000000;1.000000;,
  0.000000;0.000000;,
  1.000000;0.000000;,
  1.000000;1.000000;,
  0.000000;1.000000;,
  0.000000;0.000000;,
  1.000000;0.000000;,
  1.000000;1.000000;,
  0.000000;1.000000;,
  0.000000;0.000000;,
  1.000000;0.000000;,
  1.000000;1.000000;,
  0.000000;1.000000;,
  1.000000;1.000000;,
  0.000000;1.000000;,
  0.000000;0.000000;,
  1.000000;0.000000;,
  0.000000;0.000000;,
  1.000000;0.000000;,
  1.000000;1.000000;,
  0.000000;1.000000;,
  0.000000;0.000000;,
  1.000000;0.000000;,
  1.000000;1.000000;,
  0.000000;1.000000;,
  0.000000;0.000000;,
  1.000000;0.000000;,
  1.000000;1.000000;,
  0.000000;1.000000;,
  0.000000;0.000000;,
  1.000000;0.000000;,
  1.000000;1.000000;,
  0.000000;1.000000;,
  1.000000;1.000000;,
  0.000000;1.000000;,
  0.000000;0.000000;,
  1.000000;0.000000;,
  0.000000;0.000000;,
  1.000000;0.000000;,
  1.000000;1.000000;,
  0.000000;1.000000;,
  0.000000;0.000000;,
  1.000000;0.000000;,
  1.000000;1.000000;,
  0.000000;1.000000;,
  0.000000;0.000000;,
  1.000000;0.000000;,
  1.000000;1.000000;,
  0.000000;1.000000;,
  0.000000;0.000000;,
  1.000000;0.000000;,
  1.000000;1.000000;,
  0.000000;1.000000;,
  1.000000;1.000000;,
  0.000000;1.000000;,
  0.000000;0.000000;,
  1.000000;0.000000;,
  0.000000;0.000000;,
  1.000000;0.000000;,
  1.000000;1.000000;,
  0.000000;1.000000;,
  0.000000;0.000000;,
  1.000000;0.000000;,
  1.000000;1.000000;,
  0.000000;1.000000;,
  0.000000;0.000000;,
  1.000000;0.000000;,
  1.000000;1.000000;,
  0.000000;1.000000;,
  0.000000;0.000000;,
  1.000000;0.000000;,
  1.000000;1.000000;,
  0.000000;1.000000;,
  1.000000;1.000000;,
  0.000000;1.000000;,
  0.000000;0.000000;,
  1.000000;0.000000;,
  0.000000;0.000000;,
  1.000000;0.000000;,
  1.000000;1.000000;,
  0.000000;1.000000;,
  0.000000;0.000000;,
  1.000000;0.000000;,
  1.000000;1.000000;,
  0.000000;1.000000;,
  0.000000;0.000000;,
  1.000000;0.000000;,
  1.000000;1.000000;,
  0.000000;1.000000;,
  0.000000;0.000000;,
  1.000000;0.000000;,
  1.000000;1.000000;,
  0.000000;1.000000;,
  1.000000;1.000000;,
  0.000000;1.000000;,
  0.000000;0.000000;,
  1.000000;0.000000;,
  0.000000;0.000000;,
  1.000000;0.000000;,
  1.000000;1.000000;,
  0.000000;1.000000;,
  0.000000;0.000000;,
  1.000000;0.000000;,
  1.000000;1.000000;,
  0.000000;1.000000;,
  0.000000;0.000000;,
  1.000000;0.000000;,
  1.000000;1.000000;,
  0.000000;1.000000;,
  0.000000;0.000000;,
  1.000000;0.000000;,
  1.000000;1.000000;,
  0.000000;1.000000;,
  1.000000;1.000000;,
  0.000000;1.000000;,
  0.000000;0.000000;,
  1.000000;0.000000;,
  0.000000;0.000000;,
  1.000000;0.000000;,
  1.000000;1.000000;,
  0.000000;1.000000;,
  0.000000;0.000000;,
  1.000000;0.000000;,
  1.000000;1.000000;,
  0.000000;1.000000;,
  0.000000;0.000000;,
  1.000000;0.000000;,
  1.000000;1.000000;,
  0.000000;1.000000;,
  0.000000;0.000000;,
  1.000000;0.000000;,
  1.000000;1.000000;,
  0.000000;1.000000;,
  1.000000;1.000000;,
  0.000000;1.000000;,
  0.000000;0.000000;,
  1.000000;0.000000;,
  0.000000;0.000000;,
  1.000000;0.000000;,
  1.000000;1.000000;,
  0.000000;1.000000;,
  0.000000;0.000000;,
  1.000000;0.000000;,
  1.000000;1.000000;,
  0.000000;1.000000;,
  0.000000;0.000000;,
  1.000000;0.000000;,
  1.000000;1.000000;,
  0.000000;1.000000;,
  0.000000;0.000000;,
  1.000000;0.000000;,
  1.000000;1.000000;,
  0.000000;1.000000;,
  1.000000;1.000000;,
  0.000000;1.000000;,
  0.000000;0.000000;,
  1.000000;0.000000;,
  0.000000;0.000000;,
  1.000000;0.000000;,
  1.000000;1.000000;,
  0.000000;1.000000;,
  0.000000;0.000000;,
  1.000000;0.000000;,
  1.000000;1.000000;,
  0.000000;1.000000;,
  0.000000;0.000000;,
  1.000000;0.000000;,
  1.000000;1.000000;,
  0.000000;1.000000;,
  0.000000;0.000000;,
  1.000000;0.000000;,
  1.000000;1.000000;,
  0.000000;1.000000;,
  1.000000;1.000000;,
  0.000000;1.000000;,
  0.000000;0.000000;,
  1.000000;0.000000;,
  0.000000;0.000000;,
  1.000000;0.000000;,
  1.000000;1.000000;,
  0.000000;1.000000;,
  0.000000;0.000000;,
  1.000000;0.000000;,
  1.000000;1.000000;,
  0.000000;1.000000;,
  0.000000;0.000000;,
  1.000000;0.000000;,
  1.000000;1.000000;,
  0.000000;1.000000;,
  0.000000;0.000000;,
  1.000000;0.000000;,
  1.000000;1.000000;,
  0.000000;1.000000;,
  1.000000;1.000000;,
  0.000000;1.000000;,
  0.000000;0.000000;,
  1.000000;0.000000;,
  0.000000;0.000000;,
  1.000000;0.000000;,
  1.000000;1.000000;,
  0.000000;1.000000;,
  0.000000;0.000000;,
  1.000000;0.000000;,
  1.000000;1.000000;,
  0.000000;1.000000;,
  0.000000;0.000000;,
  1.000000;0.000000;,
  1.000000;1.000000;,
  0.000000;1.000000;,
  0.000000;0.000000;,
  1.000000;0.000000;,
  1.000000;1.000000;,
  0.000000;1.000000;,
  1.000000;1.000000;,
  0.000000;1.000000;,
  0.000000;0.000000;,
  1.000000;0.000000;,
  0.000000;0.000000;,
  1.000000;0.000000;,
  1.000000;1.000000;,
  0.000000;1.000000;,
  0.000000;0.000000;,
  1.000000;0.000000;,
  1.000000;1.000000;,
  0.000000;1.000000;,
  0.000000;0.000000;,
  1.000000;0.000000;,
  1.000000;1.000000;,
  0.000000;1.000000;,
  0.000000;0.000000;,
  1.000000;0.000000;,
  1.000000;1.000000;,
  0.000000;1.000000;,
  1.000000;1.000000;,
  0.000000;1.000000;,
  0.000000;0.000000;,
  1.000000;0.000000;,
  0.000000;0.000000;,
  1.000000;0.000000;,
  1.000000;1.000000;,
  0.000000;1.000000;,
  0.000000;0.000000;,
  1.000000;0.000000;,
  1.000000;1.000000;,
  0.000000;1.000000;,
  0.000000;0.000000;,
  1.000000;0.000000;,
  1.000000;1.000000;,
  0.000000;1.000000;,
  0.000000;0.000000;,
  1.000000;0.000000;,
  1.000000;1.000000;,
  0.000000;1.000000;,
  1.000000;1.000000;,
  0.000000;1.000000;,
  0.000000;0.000000;,
  1.000000;0.000000;,
  0.000000;0.000000;,
  1.000000;0.000000;,
  1.000000;1.000000;,
  0.000000;1.000000;,
  0.000000;0.000000;,
  1.000000;0.000000;,
  1.000000;1.000000;,
  0.000000;1.000000;,
  0.000000;0.000000;,
  1.000000;0.000000;,
  1.000000;1.000000;,
  0.000000;1.000000;,
  0.000000;0.000000;,
  1.000000;0.000000;,
  1.000000;1.000000;,
  0.000000;1.000000;,
  1.000000;1.000000;,
  0.000000;1.000000;,
  0.000000;0.000000;,
  1.000000;0.000000;,
  0.000000;0.000000;,
  1.000000;0.000000;,
  1.000000;1.000000;,
  0.000000;1.000000;,
  0.000000;0.000000;,
  1.000000;0.000000;,
  1.000000;1.000000;,
  0.000000;1.000000;,
  0.000000;0.000000;,
  1.000000;0.000000;,
  1.000000;1.000000;,
  0.000000;1.000000;,
  0.000000;0.000000;,
  1.000000;0.000000;,
  1.000000;1.000000;,
  0.000000;1.000000;,
  1.000000;1.000000;,
  0.000000;1.000000;,
  0.000000;0.000000;,
  1.000000;0.000000;,
  0.000000;0.000000;,
  1.000000;0.000000;,
  1.000000;1.000000;,
  0.000000;1.000000;,
  0.000000;0.000000;,
  1.000000;0.000000;,
  1.000000;1.000000;,
  0.000000;1.000000;,
  0.000000;0.000000;,
  1.000000;0.000000;,
  1.000000;1.000000;,
  0.000000;1.000000;,
  0.000000;0.000000;,
  1.000000;0.000000;,
  1.000000;1.000000;,
  0.000000;1.000000;,
  1.000000;1.000000;,
  0.000000;1.000000;,
  0.000000;0.000000;,
  1.000000;0.000000;,
  0.000000;0.000000;,
  1.000000;0.000000;,
  1.000000;1.000000;,
  0.000000;1.000000;,
  0.000000;0.000000;,
  1.000000;0.000000;,
  1.000000;1.000000;,
  0.000000;1.000000;,
  0.000000;0.000000;,
  1.000000;0.000000;,
  1.000000;1.000000;,
  0.000000;1.000000;,
  0.000000;0.000000;,
  1.000000;0.000000;,
  1.000000;1.000000;,
  0.000000;1.000000;,
  1.000000;1.000000;,
  0.000000;1.000000;,
  0.000000;0.000000;,
  1.000000;0.000000;,
  0.000000;0.000000;,
  1.000000;0.000000;,
  1.000000;1.000000;,
  0.000000;1.000000;,
  0.000000;0.000000;,
  1.000000;0.000000;,
  1.000000;1.000000;,
  0.000000;1.000000;,
  0.000000;0.000000;,
  1.000000;0.000000;,
  1.000000;1.000000;,
  0.000000;1.000000;,
  0.000000;0.000000;,
  1.000000;0.000000;,
  1.000000;1.000000;,
  0.000000;1.000000;,
  1.000000;1.000000;,
  0.000000;1.000000;,
  0.000000;0.000000;,
  1.000000;0.000000;,
  0.000000;0.000000;,
  1.000000;0.000000;,
  1.000000;1.000000;,
  0.000000;1.000000;,
  0.000000;0.000000;,
  1.000000;0.000000;,
  1.000000;1.000000;,
  0.000000;1.000000;,
  0.000000;0.000000;,
  1.000000;0.000000;,
  1.000000;1.000000;,
  0.000000;1.000000;,
  0.000000;0.000000;,
  1.000000;0.000000;,
  1.000000;1.000000;,
  0.000000;1.000000;,
  1.000000;1.000000;,
  0.000000;1.000000;,
  0.000000;0.000000;,
  1.000000;0.000000;,
  0.000000;0.000000;,
  0.000000;1.000000;,
  1.000000;1.000000;,
  1.000000;0.000000;,
  0.000000;0.000000;,
  0.000000;1.000000;,
  1.000000;1.000000;,
  1.000000;0.000000;,
  0.000000;0.000000;,
  0.000000;1.000000;,
  1.000000;1.000000;,
  1.000000;0.000000;,
  0.000000;0.000000;,
  0.000000;1.000000;,
  1.000000;1.000000;,
  1.000000;0.000000;,
  0.000000;1.000000;,
  1.000000;1.000000;,
  0.000000;0.000000;,
  1.000000;0.000000;,
  0.000000;0.000000;,
  1.000000;0.000000;,
  1.000000;1.000000;,
  0.000000;1.000000;,
  0.000000;0.000000;,
  1.000000;0.000000;,
  1.000000;1.000000;,
  0.000000;1.000000;,
  0.000000;0.000000;,
  1.000000;0.000000;,
  1.000000;1.000000;,
  0.000000;1.000000;,
  0.000000;0.000000;,
  1.000000;0.000000;,
  1.000000;1.000000;,
  0.000000;1.000000;,
  1.000000;1.000000;,
  0.000000;1.000000;,
  0.000000;0.000000;,
  1.000000;0.000000;;
 }
 MeshVertexColors {
  520;
  0;1.000000;1.000000;1.000000;1.000000;,
  1;1.000000;1.000000;1.000000;1.000000;,
  2;1.000000;1.000000;1.000000;1.000000;,
  3;1.000000;1.000000;1.000000;1.000000;,
  4;1.000000;1.000000;1.000000;1.000000;,
  5;1.000000;1.000000;1.000000;1.000000;,
  6;1.000000;1.000000;1.000000;1.000000;,
  7;1.000000;1.000000;1.000000;1.000000;,
  8;1.000000;1.000000;1.000000;1.000000;,
  9;1.000000;1.000000;1.000000;1.000000;,
  10;1.000000;1.000000;1.000000;1.000000;,
  11;1.000000;1.000000;1.000000;1.000000;,
  12;1.000000;1.000000;1.000000;1.000000;,
  13;1.000000;1.000000;1.000000;1.000000;,
  14;1.000000;1.000000;1.000000;1.000000;,
  15;1.000000;1.000000;1.000000;1.000000;,
  16;1.000000;1.000000;1.000000;1.000000;,
  17;1.000000;1.000000;1.000000;1.000000;,
  18;1.000000;1.000000;1.000000;1.000000;,
  19;1.000000;1.000000;1.000000;1.000000;,
  20;1.000000;1.000000;1.000000;1.000000;,
  21;1.000000;1.000000;1.000000;1.000000;,
  22;1.000000;1.000000;1.000000;1.000000;,
  23;1.000000;1.000000;1.000000;1.000000;,
  24;1.000000;1.000000;1.000000;1.000000;,
  25;1.000000;1.000000;1.000000;1.000000;,
  26;1.000000;1.000000;1.000000;1.000000;,
  27;1.000000;1.000000;1.000000;1.000000;,
  28;1.000000;1.000000;1.000000;1.000000;,
  29;1.000000;1.000000;1.000000;1.000000;,
  30;1.000000;1.000000;1.000000;1.000000;,
  31;1.000000;1.000000;1.000000;1.000000;,
  32;1.000000;1.000000;1.000000;1.000000;,
  33;1.000000;1.000000;1.000000;1.000000;,
  34;1.000000;1.000000;1.000000;1.000000;,
  35;1.000000;1.000000;1.000000;1.000000;,
  36;1.000000;1.000000;1.000000;1.000000;,
  37;1.000000;1.000000;1.000000;1.000000;,
  38;1.000000;1.000000;1.000000;1.000000;,
  39;1.000000;1.000000;1.000000;1.000000;,
  40;1.000000;1.000000;1.000000;1.000000;,
  41;1.000000;1.000000;1.000000;1.000000;,
  42;1.000000;1.000000;1.000000;1.000000;,
  43;1.000000;1.000000;1.000000;1.000000;,
  44;1.000000;1.000000;1.000000;1.000000;,
  45;1.000000;1.000000;1.000000;1.000000;,
  46;1.000000;1.000000;1.000000;1.000000;,
  47;1.000000;1.000000;1.000000;1.000000;,
  48;1.000000;1.000000;1.000000;1.000000;,
  49;1.000000;1.000000;1.000000;1.000000;,
  50;1.000000;1.000000;1.000000;1.000000;,
  51;1.000000;1.000000;1.000000;1.000000;,
  52;1.000000;1.000000;1.000000;1.000000;,
  53;1.000000;1.000000;1.000000;1.000000;,
  54;1.000000;1.000000;1.000000;1.000000;,
  55;1.000000;1.000000;1.000000;1.000000;,
  56;1.000000;1.000000;1.000000;1.000000;,
  57;1.000000;1.000000;1.000000;1.000000;,
  58;1.000000;1.000000;1.000000;1.000000;,
  59;1.000000;1.000000;1.000000;1.000000;,
  60;1.000000;1.000000;1.000000;1.000000;,
  61;1.000000;1.000000;1.000000;1.000000;,
  62;1.000000;1.000000;1.000000;1.000000;,
  63;1.000000;1.000000;1.000000;1.000000;,
  64;1.000000;1.000000;1.000000;1.000000;,
  65;1.000000;1.000000;1.000000;1.000000;,
  66;1.000000;1.000000;1.000000;1.000000;,
  67;1.000000;1.000000;1.000000;1.000000;,
  68;1.000000;1.000000;1.000000;1.000000;,
  69;1.000000;1.000000;1.000000;1.000000;,
  70;1.000000;1.000000;1.000000;1.000000;,
  71;1.000000;1.000000;1.000000;1.000000;,
  72;1.000000;1.000000;1.000000;1.000000;,
  73;1.000000;1.000000;1.000000;1.000000;,
  74;1.000000;1.000000;1.000000;1.000000;,
  75;1.000000;1.000000;1.000000;1.000000;,
  76;1.000000;1.000000;1.000000;1.000000;,
  77;1.000000;1.000000;1.000000;1.000000;,
  78;1.000000;1.000000;1.000000;1.000000;,
  79;1.000000;1.000000;1.000000;1.000000;,
  80;1.000000;1.000000;1.000000;1.000000;,
  81;1.000000;1.000000;1.000000;1.000000;,
  82;1.000000;1.000000;1.000000;1.000000;,
  83;1.000000;1.000000;1.000000;1.000000;,
  84;1.000000;1.000000;1.000000;1.000000;,
  85;1.000000;1.000000;1.000000;1.000000;,
  86;1.000000;1.000000;1.000000;1.000000;,
  87;1.000000;1.000000;1.000000;1.000000;,
  88;1.000000;1.000000;1.000000;1.000000;,
  89;1.000000;1.000000;1.000000;1.000000;,
  90;1.000000;1.000000;1.000000;1.000000;,
  91;1.000000;1.000000;1.000000;1.000000;,
  92;1.000000;1.000000;1.000000;1.000000;,
  93;1.000000;1.000000;1.000000;1.000000;,
  94;1.000000;1.000000;1.000000;1.000000;,
  95;1.000000;1.000000;1.000000;1.000000;,
  96;1.000000;1.000000;1.000000;1.000000;,
  97;1.000000;1.000000;1.000000;1.000000;,
  98;1.000000;1.000000;1.000000;1.000000;,
  99;1.000000;1.000000;1.000000;1.000000;,
  100;1.000000;1.000000;1.000000;1.000000;,
  101;1.000000;1.000000;1.000000;1.000000;,
  102;1.000000;1.000000;1.000000;1.000000;,
  103;1.000000;1.000000;1.000000;1.000000;,
  104;1.000000;1.000000;1.000000;1.000000;,
  105;1.000000;1.000000;1.000000;1.000000;,
  106;1.000000;1.000000;1.000000;1.000000;,
  107;1.000000;1.000000;1.000000;1.000000;,
  108;1.000000;1.000000;1.000000;1.000000;,
  109;1.000000;1.000000;1.000000;1.000000;,
  110;1.000000;1.000000;1.000000;1.000000;,
  111;1.000000;1.000000;1.000000;1.000000;,
  112;1.000000;1.000000;1.000000;1.000000;,
  113;1.000000;1.000000;1.000000;1.000000;,
  114;1.000000;1.000000;1.000000;1.000000;,
  115;1.000000;1.000000;1.000000;1.000000;,
  116;1.000000;1.000000;1.000000;1.000000;,
  117;1.000000;1.000000;1.000000;1.000000;,
  118;1.000000;1.000000;1.000000;1.000000;,
  119;1.000000;1.000000;1.000000;1.000000;,
  120;1.000000;1.000000;1.000000;1.000000;,
  121;1.000000;1.000000;1.000000;1.000000;,
  122;1.000000;1.000000;1.000000;1.000000;,
  123;1.000000;1.000000;1.000000;1.000000;,
  124;1.000000;1.000000;1.000000;1.000000;,
  125;1.000000;1.000000;1.000000;1.000000;,
  126;1.000000;1.000000;1.000000;1.000000;,
  127;1.000000;1.000000;1.000000;1.000000;,
  128;1.000000;1.000000;1.000000;1.000000;,
  129;1.000000;1.000000;1.000000;1.000000;,
  130;1.000000;1.000000;1.000000;1.000000;,
  131;1.000000;1.000000;1.000000;1.000000;,
  132;1.000000;1.000000;1.000000;1.000000;,
  133;1.000000;1.000000;1.000000;1.000000;,
  134;1.000000;1.000000;1.000000;1.000000;,
  135;1.000000;1.000000;1.000000;1.000000;,
  136;1.000000;1.000000;1.000000;1.000000;,
  137;1.000000;1.000000;1.000000;1.000000;,
  138;1.000000;1.000000;1.000000;1.000000;,
  139;1.000000;1.000000;1.000000;1.000000;,
  140;1.000000;1.000000;1.000000;1.000000;,
  141;1.000000;1.000000;1.000000;1.000000;,
  142;1.000000;1.000000;1.000000;1.000000;,
  143;1.000000;1.000000;1.000000;1.000000;,
  144;1.000000;1.000000;1.000000;1.000000;,
  145;1.000000;1.000000;1.000000;1.000000;,
  146;1.000000;1.000000;1.000000;1.000000;,
  147;1.000000;1.000000;1.000000;1.000000;,
  148;1.000000;1.000000;1.000000;1.000000;,
  149;1.000000;1.000000;1.000000;1.000000;,
  150;1.000000;1.000000;1.000000;1.000000;,
  151;1.000000;1.000000;1.000000;1.000000;,
  152;1.000000;1.000000;1.000000;1.000000;,
  153;1.000000;1.000000;1.000000;1.000000;,
  154;1.000000;1.000000;1.000000;1.000000;,
  155;1.000000;1.000000;1.000000;1.000000;,
  156;1.000000;1.000000;1.000000;1.000000;,
  157;1.000000;1.000000;1.000000;1.000000;,
  158;1.000000;1.000000;1.000000;1.000000;,
  159;1.000000;1.000000;1.000000;1.000000;,
  160;1.000000;1.000000;1.000000;1.000000;,
  161;1.000000;1.000000;1.000000;1.000000;,
  162;1.000000;1.000000;1.000000;1.000000;,
  163;1.000000;1.000000;1.000000;1.000000;,
  164;1.000000;1.000000;1.000000;1.000000;,
  165;1.000000;1.000000;1.000000;1.000000;,
  166;1.000000;1.000000;1.000000;1.000000;,
  167;1.000000;1.000000;1.000000;1.000000;,
  168;1.000000;1.000000;1.000000;1.000000;,
  169;1.000000;1.000000;1.000000;1.000000;,
  170;1.000000;1.000000;1.000000;1.000000;,
  171;1.000000;1.000000;1.000000;1.000000;,
  172;1.000000;1.000000;1.000000;1.000000;,
  173;1.000000;1.000000;1.000000;1.000000;,
  174;1.000000;1.000000;1.000000;1.000000;,
  175;1.000000;1.000000;1.000000;1.000000;,
  176;1.000000;1.000000;1.000000;1.000000;,
  177;1.000000;1.000000;1.000000;1.000000;,
  178;1.000000;1.000000;1.000000;1.000000;,
  179;1.000000;1.000000;1.000000;1.000000;,
  180;1.000000;1.000000;1.000000;1.000000;,
  181;1.000000;1.000000;1.000000;1.000000;,
  182;1.000000;1.000000;1.000000;1.000000;,
  183;1.000000;1.000000;1.000000;1.000000;,
  184;1.000000;1.000000;1.000000;1.000000;,
  185;1.000000;1.000000;1.000000;1.000000;,
  186;1.000000;1.000000;1.000000;1.000000;,
  187;1.000000;1.000000;1.000000;1.000000;,
  188;1.000000;1.000000;1.000000;1.000000;,
  189;1.000000;1.000000;1.000000;1.000000;,
  190;1.000000;1.000000;1.000000;1.000000;,
  191;1.000000;1.000000;1.000000;1.000000;,
  192;1.000000;1.000000;1.000000;1.000000;,
  193;1.000000;1.000000;1.000000;1.000000;,
  194;1.000000;1.000000;1.000000;1.000000;,
  195;1.000000;1.000000;1.000000;1.000000;,
  196;1.000000;1.000000;1.000000;1.000000;,
  197;1.000000;1.000000;1.000000;1.000000;,
  198;1.000000;1.000000;1.000000;1.000000;,
  199;1.000000;1.000000;1.000000;1.000000;,
  200;1.000000;1.000000;1.000000;1.000000;,
  201;1.000000;1.000000;1.000000;1.000000;,
  202;1.000000;1.000000;1.000000;1.000000;,
  203;1.000000;1.000000;1.000000;1.000000;,
  204;1.000000;1.000000;1.000000;1.000000;,
  205;1.000000;1.000000;1.000000;1.000000;,
  206;1.000000;1.000000;1.000000;1.000000;,
  207;1.000000;1.000000;1.000000;1.000000;,
  208;1.000000;1.000000;1.000000;1.000000;,
  209;1.000000;1.000000;1.000000;1.000000;,
  210;1.000000;1.000000;1.000000;1.000000;,
  211;1.000000;1.000000;1.000000;1.000000;,
  212;1.000000;1.000000;1.000000;1.000000;,
  213;1.000000;1.000000;1.000000;1.000000;,
  214;1.000000;1.000000;1.000000;1.000000;,
  215;1.000000;1.000000;1.000000;1.000000;,
  216;1.000000;1.000000;1.000000;1.000000;,
  217;1.000000;1.000000;1.000000;1.000000;,
  218;1.000000;1.000000;1.000000;1.000000;,
  219;1.000000;1.000000;1.000000;1.000000;,
  220;1.000000;1.000000;1.000000;1.000000;,
  221;1.000000;1.000000;1.000000;1.000000;,
  222;1.000000;1.000000;1.000000;1.000000;,
  223;1.000000;1.000000;1.000000;1.000000;,
  224;1.000000;1.000000;1.000000;1.000000;,
  225;1.000000;1.000000;1.000000;1.000000;,
  226;1.000000;1.000000;1.000000;1.000000;,
  227;1.000000;1.000000;1.000000;1.000000;,
  228;1.000000;1.000000;1.000000;1.000000;,
  229;1.000000;1.000000;1.000000;1.000000;,
  230;1.000000;1.000000;1.000000;1.000000;,
  231;1.000000;1.000000;1.000000;1.000000;,
  232;1.000000;1.000000;1.000000;1.000000;,
  233;1.000000;1.000000;1.000000;1.000000;,
  234;1.000000;1.000000;1.000000;1.000000;,
  235;1.000000;1.000000;1.000000;1.000000;,
  236;1.000000;1.000000;1.000000;1.000000;,
  237;1.000000;1.000000;1.000000;1.000000;,
  238;1.000000;1.000000;1.000000;1.000000;,
  239;1.000000;1.000000;1.000000;1.000000;,
  240;1.000000;1.000000;1.000000;1.000000;,
  241;1.000000;1.000000;1.000000;1.000000;,
  242;1.000000;1.000000;1.000000;1.000000;,
  243;1.000000;1.000000;1.000000;1.000000;,
  244;1.000000;1.000000;1.000000;1.000000;,
  245;1.000000;1.000000;1.000000;1.000000;,
  246;1.000000;1.000000;1.000000;1.000000;,
  247;1.000000;1.000000;1.000000;1.000000;,
  248;1.000000;1.000000;1.000000;1.000000;,
  249;1.000000;1.000000;1.000000;1.000000;,
  250;1.000000;1.000000;1.000000;1.000000;,
  251;1.000000;1.000000;1.000000;1.000000;,
  252;1.000000;1.000000;1.000000;1.000000;,
  253;1.000000;1.000000;1.000000;1.000000;,
  254;1.000000;1.000000;1.000000;1.000000;,
  255;1.000000;1.000000;1.000000;1.000000;,
  256;1.000000;1.000000;1.000000;1.000000;,
  257;1.000000;1.000000;1.000000;1.000000;,
  258;1.000000;1.000000;1.000000;1.000000;,
  259;1.000000;1.000000;1.000000;1.000000;,
  260;1.000000;1.000000;1.000000;1.000000;,
  261;1.000000;1.000000;1.000000;1.000000;,
  262;1.000000;1.000000;1.000000;1.000000;,
  263;1.000000;1.000000;1.000000;1.000000;,
  264;1.000000;1.000000;1.000000;1.000000;,
  265;1.000000;1.000000;1.000000;1.000000;,
  266;1.000000;1.000000;1.000000;1.000000;,
  267;1.000000;1.000000;1.000000;1.000000;,
  268;1.000000;1.000000;1.000000;1.000000;,
  269;1.000000;1.000000;1.000000;1.000000;,
  270;1.000000;1.000000;1.000000;1.000000;,
  271;1.000000;1.000000;1.000000;1.000000;,
  272;1.000000;1.000000;1.000000;1.000000;,
  273;1.000000;1.000000;1.000000;1.000000;,
  274;1.000000;1.000000;1.000000;1.000000;,
  275;1.000000;1.000000;1.000000;1.000000;,
  276;1.000000;1.000000;1.000000;1.000000;,
  277;1.000000;1.000000;1.000000;1.000000;,
  278;1.000000;1.000000;1.000000;1.000000;,
  279;1.000000;1.000000;1.000000;1.000000;,
  280;1.000000;1.000000;1.000000;1.000000;,
  281;1.000000;1.000000;1.000000;1.000000;,
  282;1.000000;1.000000;1.000000;1.000000;,
  283;1.000000;1.000000;1.000000;1.000000;,
  284;1.000000;1.000000;1.000000;1.000000;,
  285;1.000000;1.000000;1.000000;1.000000;,
  286;1.000000;1.000000;1.000000;1.000000;,
  287;1.000000;1.000000;1.000000;1.000000;,
  288;1.000000;1.000000;1.000000;1.000000;,
  289;1.000000;1.000000;1.000000;1.000000;,
  290;1.000000;1.000000;1.000000;1.000000;,
  291;1.000000;1.000000;1.000000;1.000000;,
  292;1.000000;1.000000;1.000000;1.000000;,
  293;1.000000;1.000000;1.000000;1.000000;,
  294;1.000000;1.000000;1.000000;1.000000;,
  295;1.000000;1.000000;1.000000;1.000000;,
  296;1.000000;1.000000;1.000000;1.000000;,
  297;1.000000;1.000000;1.000000;1.000000;,
  298;1.000000;1.000000;1.000000;1.000000;,
  299;1.000000;1.000000;1.000000;1.000000;,
  300;1.000000;1.000000;1.000000;1.000000;,
  301;1.000000;1.000000;1.000000;1.000000;,
  302;1.000000;1.000000;1.000000;1.000000;,
  303;1.000000;1.000000;1.000000;1.000000;,
  304;1.000000;1.000000;1.000000;1.000000;,
  305;1.000000;1.000000;1.000000;1.000000;,
  306;1.000000;1.000000;1.000000;1.000000;,
  307;1.000000;1.000000;1.000000;1.000000;,
  308;1.000000;1.000000;1.000000;1.000000;,
  309;1.000000;1.000000;1.000000;1.000000;,
  310;1.000000;1.000000;1.000000;1.000000;,
  311;1.000000;1.000000;1.000000;1.000000;,
  312;1.000000;1.000000;1.000000;1.000000;,
  313;1.000000;1.000000;1.000000;1.000000;,
  314;1.000000;1.000000;1.000000;1.000000;,
  315;1.000000;1.000000;1.000000;1.000000;,
  316;1.000000;1.000000;1.000000;1.000000;,
  317;1.000000;1.000000;1.000000;1.000000;,
  318;1.000000;1.000000;1.000000;1.000000;,
  319;1.000000;1.000000;1.000000;1.000000;,
  320;1.000000;1.000000;1.000000;1.000000;,
  321;1.000000;1.000000;1.000000;1.000000;,
  322;1.000000;1.000000;1.000000;1.000000;,
  323;1.000000;1.000000;1.000000;1.000000;,
  324;1.000000;1.000000;1.000000;1.000000;,
  325;1.000000;1.000000;1.000000;1.000000;,
  326;1.000000;1.000000;1.000000;1.000000;,
  327;1.000000;1.000000;1.000000;1.000000;,
  328;1.000000;1.000000;1.000000;1.000000;,
  329;1.000000;1.000000;1.000000;1.000000;,
  330;1.000000;1.000000;1.000000;1.000000;,
  331;1.000000;1.000000;1.000000;1.000000;,
  332;1.000000;1.000000;1.000000;1.000000;,
  333;1.000000;1.000000;1.000000;1.000000;,
  334;1.000000;1.000000;1.000000;1.000000;,
  335;1.000000;1.000000;1.000000;1.000000;,
  336;1.000000;1.000000;1.000000;1.000000;,
  337;1.000000;1.000000;1.000000;1.000000;,
  338;1.000000;1.000000;1.000000;1.000000;,
  339;1.000000;1.000000;1.000000;1.000000;,
  340;1.000000;1.000000;1.000000;1.000000;,
  341;1.000000;1.000000;1.000000;1.000000;,
  342;1.000000;1.000000;1.000000;1.000000;,
  343;1.000000;1.000000;1.000000;1.000000;,
  344;1.000000;1.000000;1.000000;1.000000;,
  345;1.000000;1.000000;1.000000;1.000000;,
  346;1.000000;1.000000;1.000000;1.000000;,
  347;1.000000;1.000000;1.000000;1.000000;,
  348;1.000000;1.000000;1.000000;1.000000;,
  349;1.000000;1.000000;1.000000;1.000000;,
  350;1.000000;1.000000;1.000000;1.000000;,
  351;1.000000;1.000000;1.000000;1.000000;,
  352;1.000000;1.000000;1.000000;1.000000;,
  353;1.000000;1.000000;1.000000;1.000000;,
  354;1.000000;1.000000;1.000000;1.000000;,
  355;1.000000;1.000000;1.000000;1.000000;,
  356;1.000000;1.000000;1.000000;1.000000;,
  357;1.000000;1.000000;1.000000;1.000000;,
  358;1.000000;1.000000;1.000000;1.000000;,
  359;1.000000;1.000000;1.000000;1.000000;,
  360;1.000000;1.000000;1.000000;1.000000;,
  361;1.000000;1.000000;1.000000;1.000000;,
  362;1.000000;1.000000;1.000000;1.000000;,
  363;1.000000;1.000000;1.000000;1.000000;,
  364;1.000000;1.000000;1.000000;1.000000;,
  365;1.000000;1.000000;1.000000;1.000000;,
  366;1.000000;1.000000;1.000000;1.000000;,
  367;1.000000;1.000000;1.000000;1.000000;,
  368;1.000000;1.000000;1.000000;1.000000;,
  369;1.000000;1.000000;1.000000;1.000000;,
  370;1.000000;1.000000;1.000000;1.000000;,
  371;1.000000;1.000000;1.000000;1.000000;,
  372;1.000000;1.000000;1.000000;1.000000;,
  373;1.000000;1.000000;1.000000;1.000000;,
  374;1.000000;1.000000;1.000000;1.000000;,
  375;1.000000;1.000000;1.000000;1.000000;,
  376;1.000000;1.000000;1.000000;1.000000;,
  377;1.000000;1.000000;1.000000;1.000000;,
  378;1.000000;1.000000;1.000000;1.000000;,
  379;1.000000;1.000000;1.000000;1.000000;,
  380;1.000000;1.000000;1.000000;1.000000;,
  381;1.000000;1.000000;1.000000;1.000000;,
  382;1.000000;1.000000;1.000000;1.000000;,
  383;1.000000;1.000000;1.000000;1.000000;,
  384;1.000000;1.000000;1.000000;1.000000;,
  385;1.000000;1.000000;1.000000;1.000000;,
  386;1.000000;1.000000;1.000000;1.000000;,
  387;1.000000;1.000000;1.000000;1.000000;,
  388;1.000000;1.000000;1.000000;1.000000;,
  389;1.000000;1.000000;1.000000;1.000000;,
  390;1.000000;1.000000;1.000000;1.000000;,
  391;1.000000;1.000000;1.000000;1.000000;,
  392;1.000000;1.000000;1.000000;1.000000;,
  393;1.000000;1.000000;1.000000;1.000000;,
  394;1.000000;1.000000;1.000000;1.000000;,
  395;1.000000;1.000000;1.000000;1.000000;,
  396;1.000000;1.000000;1.000000;1.000000;,
  397;1.000000;1.000000;1.000000;1.000000;,
  398;1.000000;1.000000;1.000000;1.000000;,
  399;1.000000;1.000000;1.000000;1.000000;,
  400;1.000000;1.000000;1.000000;1.000000;,
  401;1.000000;1.000000;1.000000;1.000000;,
  402;1.000000;1.000000;1.000000;1.000000;,
  403;1.000000;1.000000;1.000000;1.000000;,
  404;1.000000;1.000000;1.000000;1.000000;,
  405;1.000000;1.000000;1.000000;1.000000;,
  406;1.000000;1.000000;1.000000;1.000000;,
  407;1.000000;1.000000;1.000000;1.000000;,
  408;1.000000;1.000000;1.000000;1.000000;,
  409;1.000000;1.000000;1.000000;1.000000;,
  410;1.000000;1.000000;1.000000;1.000000;,
  411;1.000000;1.000000;1.000000;1.000000;,
  412;1.000000;1.000000;1.000000;1.000000;,
  413;1.000000;1.000000;1.000000;1.000000;,
  414;1.000000;1.000000;1.000000;1.000000;,
  415;1.000000;1.000000;1.000000;1.000000;,
  416;1.000000;1.000000;1.000000;1.000000;,
  417;1.000000;1.000000;1.000000;1.000000;,
  418;1.000000;1.000000;1.000000;1.000000;,
  419;1.000000;1.000000;1.000000;1.000000;,
  420;1.000000;1.000000;1.000000;1.000000;,
  421;1.000000;1.000000;1.000000;1.000000;,
  422;1.000000;1.000000;1.000000;1.000000;,
  423;1.000000;1.000000;1.000000;1.000000;,
  424;1.000000;1.000000;1.000000;1.000000;,
  425;1.000000;1.000000;1.000000;1.000000;,
  426;1.000000;1.000000;1.000000;1.000000;,
  427;1.000000;1.000000;1.000000;1.000000;,
  428;1.000000;1.000000;1.000000;1.000000;,
  429;1.000000;1.000000;1.000000;1.000000;,
  430;1.000000;1.000000;1.000000;1.000000;,
  431;1.000000;1.000000;1.000000;1.000000;,
  432;1.000000;1.000000;1.000000;1.000000;,
  433;1.000000;1.000000;1.000000;1.000000;,
  434;1.000000;1.000000;1.000000;1.000000;,
  435;1.000000;1.000000;1.000000;1.000000;,
  436;1.000000;1.000000;1.000000;1.000000;,
  437;1.000000;1.000000;1.000000;1.000000;,
  438;1.000000;1.000000;1.000000;1.000000;,
  439;1.000000;1.000000;1.000000;1.000000;,
  440;1.000000;1.000000;1.000000;1.000000;,
  441;1.000000;1.000000;1.000000;1.000000;,
  442;1.000000;1.000000;1.000000;1.000000;,
  443;1.000000;1.000000;1.000000;1.000000;,
  444;1.000000;1.000000;1.000000;1.000000;,
  445;1.000000;1.000000;1.000000;1.000000;,
  446;1.000000;1.000000;1.000000;1.000000;,
  447;1.000000;1.000000;1.000000;1.000000;,
  448;1.000000;1.000000;1.000000;1.000000;,
  449;1.000000;1.000000;1.000000;1.000000;,
  450;1.000000;1.000000;1.000000;1.000000;,
  451;1.000000;1.000000;1.000000;1.000000;,
  452;1.000000;1.000000;1.000000;1.000000;,
  453;1.000000;1.000000;1.000000;1.000000;,
  454;1.000000;1.000000;1.000000;1.000000;,
  455;1.000000;1.000000;1.000000;1.000000;,
  456;1.000000;1.000000;1.000000;1.000000;,
  457;1.000000;1.000000;1.000000;1.000000;,
  458;1.000000;1.000000;1.000000;1.000000;,
  459;1.000000;1.000000;1.000000;1.000000;,
  460;1.000000;1.000000;1.000000;1.000000;,
  461;1.000000;1.000000;1.000000;1.000000;,
  462;1.000000;1.000000;1.000000;1.000000;,
  463;1.000000;1.000000;1.000000;1.000000;,
  464;1.000000;1.000000;1.000000;1.000000;,
  465;1.000000;1.000000;1.000000;1.000000;,
  466;1.000000;1.000000;1.000000;1.000000;,
  467;1.000000;1.000000;1.000000;1.000000;,
  468;1.000000;1.000000;1.000000;1.000000;,
  469;1.000000;1.000000;1.000000;1.000000;,
  470;1.000000;1.000000;1.000000;1.000000;,
  471;1.000000;1.000000;1.000000;1.000000;,
  472;1.000000;1.000000;1.000000;1.000000;,
  473;1.000000;1.000000;1.000000;1.000000;,
  474;1.000000;1.000000;1.000000;1.000000;,
  475;1.000000;1.000000;1.000000;1.000000;,
  476;1.000000;1.000000;1.000000;1.000000;,
  477;1.000000;1.000000;1.000000;1.000000;,
  478;1.000000;1.000000;1.000000;1.000000;,
  479;1.000000;1.000000;1.000000;1.000000;,
  480;1.000000;1.000000;1.000000;1.000000;,
  481;1.000000;1.000000;1.000000;1.000000;,
  482;1.000000;1.000000;1.000000;1.000000;,
  483;1.000000;1.000000;1.000000;1.000000;,
  484;1.000000;1.000000;1.000000;1.000000;,
  485;1.000000;1.000000;1.000000;1.000000;,
  486;1.000000;1.000000;1.000000;1.000000;,
  487;1.000000;1.000000;1.000000;1.000000;,
  488;1.000000;1.000000;1.000000;1.000000;,
  489;1.000000;1.000000;1.000000;1.000000;,
  490;1.000000;1.000000;1.000000;1.000000;,
  491;1.000000;1.000000;1.000000;1.000000;,
  492;1.000000;1.000000;1.000000;1.000000;,
  493;1.000000;1.000000;1.000000;1.000000;,
  494;1.000000;1.000000;1.000000;1.000000;,
  495;1.000000;1.000000;1.000000;1.000000;,
  496;1.000000;1.000000;1.000000;1.000000;,
  497;1.000000;1.000000;1.000000;1.000000;,
  498;1.000000;1.000000;1.000000;1.000000;,
  499;1.000000;1.000000;1.000000;1.000000;,
  500;1.000000;1.000000;1.000000;1.000000;,
  501;1.000000;1.000000;1.000000;1.000000;,
  502;1.000000;1.000000;1.000000;1.000000;,
  503;1.000000;1.000000;1.000000;1.000000;,
  504;1.000000;1.000000;1.000000;1.000000;,
  505;1.000000;1.000000;1.000000;1.000000;,
  506;1.000000;1.000000;1.000000;1.000000;,
  507;1.000000;1.000000;1.000000;1.000000;,
  508;1.000000;1.000000;1.000000;1.000000;,
  509;1.000000;1.000000;1.000000;1.000000;,
  510;1.000000;1.000000;1.000000;1.000000;,
  511;1.000000;1.000000;1.000000;1.000000;,
  512;1.000000;1.000000;1.000000;1.000000;,
  513;1.000000;1.000000;1.000000;1.000000;,
  514;1.000000;1.000000;1.000000;1.000000;,
  515;1.000000;1.000000;1.000000;1.000000;,
  516;1.000000;1.000000;1.000000;1.000000;,
  517;1.000000;1.000000;1.000000;1.000000;,
  518;1.000000;1.000000;1.000000;1.000000;,
  519;1.000000;1.000000;1.000000;1.000000;;
 }
}
